11 Gruppenunterschiede erforschen | How 2 do Things with Numbers (SS 2022)
…
Der ermittelte p-Value deutlich unter der Irrtumswahrscheinlichkeit von 5% spricht für die 1-Hypothese signifikanter Unterschiede bei der Mortalität zwischen den Bundesländern.

Gut. Heißt das jetzt, dass wir gerade zwischen allen Bundesländern signifikante Unterschiede nachgewiesen haben?

Nein, denn unsere Interpretation des Boxplots legt uns die Vermutung nahe, dass wir beispielsweise zwischen Oberösterreich und Salzburg solche Unterschiede nicht vorhanden sind. Wir müssen also noch für alle Paarkombinationen überprüfen, ob die betreffenden beiden Mittelwerte signifikant voneinander abweichen oder nicht. Dieser Vergleich zweier Mittelwerte kann bei gegebener Varianzhomogenität mittels Tukeys HSD (Honest Significant Difference)-Test erfolgen. Da dieser Test der eigentlich ANOVA nachgeschaltet wird, wird hier auch gerne von sgn. Post-Hoc-Tests gesprochen. Warum nachgeschaltet: Ergibt die ANOVA keine signifikanten Unterschiede, muss man auch nicht auf Ebene der Paarkombinationen nach ihnen suchen 🤦.

covidCasesNoVie %>%
  rstatix::tukey_hsd(AnzahlTot_100k ~ bula) %>%
  select(group1, group2, estimate, p.adj, p.adj.signif) %>%
  arrange(p.adj)

## # A tibble: 28 x 5
##    group1           group2           estimate     p.adj p.adj.signif
##    <chr>            <chr>               <dbl>     <dbl> <chr>       
##  1 Niederösterreich Steiermark           74.2 0.0000132 ****        
##  2 Steiermark       Tirol               -89.1 0.0000377 ****        
##  3 Oberösterreich   Steiermark           65.5 0.000461  ***         
##  4 Steiermark       Vorarlberg         -100.  0.000711  ***         
##  5 Burgenland       Steiermark           72.5 0.0015    **          
##  6 Kärnten          Tirol               -60.3 0.028     *           
##  7 Kärnten          Niederösterreich    -45.5 0.0579    ns          
##  8 Kärnten          Vorarlberg          -71.4 0.0579    ns          
##  9 Salzburg         Steiermark           53.2 0.129     ns          
## 10 Burgenland       Kärnten              43.7 0.253     ns          
## # ... with 18 more rows
…
Analog zur klassischen Varianzanalyse verrät uns auch hier der p-Value, ob wir die Nullhypothese (idente Gruppenmittelwerte) ablehnen oder nicht. Da der ermittelte p-Value liegt deutlich unter der Irrtumswahrscheinlichkeit von 5% liegt, lehnen wir diese ab. Wir kommen zum Schluss, dass bei mindestens einer der möglichen Bundesland-Paarkombinationen ein signifikanter Unterschied in der mittleren Mortalität gegeben ist.

Analog zu Tukeys HSD-Test ermöglicht bei Varianzheterogenität der Games-Howell-Test den paarweisen Test auf Mittelwertgleichheit:

covidCasesNoVie %>% 
  rstatix::games_howell_test(AnzahlTot_100k ~ bula) %>%
  select(group1, group2, estimate, p.adj, p.adj.signif) %>%
  arrange(p.adj)

## # A tibble: 28 x 5
##    group1           group2           estimate     p.adj p.adj.signif
##    <chr>            <chr>               <dbl>     <dbl> <chr>       
##  1 Kärnten          Vorarlberg          -71.4 0.0000727 ****        
##  2 Steiermark       Vorarlberg         -100.  0.0000975 ****        
##  3 Niederösterreich Steiermark           74.2 0.002     **          
##  4 Steiermark       Tirol               -89.1 0.003     **          
##  5 Oberösterreich   Vorarlberg          -34.7 0.005     **          
##  6 Kärnten          Niederösterreich    -45.5 0.006     **          
##  7 Oberösterreich   Steiermark           65.5 0.007     **          
##  8 Kärnten          Tirol               -60.3 0.027     *           
##  9 Niederösterreich Vorarlberg          -26.0 0.037     *           
## 10 Kärnten          Oberösterreich      -36.7 0.042     *           
## # ... with 18 more rows
…
